(footprint "Mercury_Switch_3mm" (version 20211014) (generator pcbnew)
  (layer "F.Cu")
  (tedit 0)
  (attr smd)
  (fp_text reference "REF**" (at 0 -9 unlocked) (layer "F.SilkS")
    (effects (font (size 1 1) (thickness 0.15)))
    (tstamp 7c239dc1-9f4b-4f0f-b8a8-484ebae4450d)
  )
  (fp_text value "Mercury_Switch_3mm" (at 0.5 3 unlocked) (layer "F.Fab")
    (effects (font (size 1 1) (thickness 0.15)))
    (tstamp 81c12548-6229-433e-8b22-10e40f9609cd)
  )
  (fp_text user "${REFERENCE}" (at 0 -9 unlocked) (layer "F.Fab")
    (effects (font (size 1 1) (thickness 0.15)))
    (tstamp 55b0816c-19f8-41e2-ba31-e5467bd127c2)
  )
  (fp_line (start 2 -8) (end -2 -8) (layer "F.SilkS") (width 0.12) (tstamp 36e5d122-dde9-46c7-8208-288f58272463))
  (fp_line (start -2 -8) (end -2 2) (layer "F.SilkS") (width 0.12) (tstamp 4731cfb7-02f7-444d-b9c6-e2b096558e60))
  (fp_line (start -2 2) (end 2 2) (layer "F.SilkS") (width 0.12) (tstamp 7fed9e2c-1243-448b-a23c-6186942f741e))
  (fp_line (start 2 2) (end 2 -8) (layer "F.SilkS") (width 0.12) (tstamp de7dc0bd-133a-4c52-857a-09064fef51cb))
  (pad "1" smd roundrect (at -1 0 90) (size 2.286 1.25) (layers "F.Cu" "F.Paste" "F.Mask") (roundrect_rratio 0.25) (tstamp 0a0a65ba-e86e-41e9-8b06-de05192be7cd))
  (pad "2" smd roundrect (at 1 0 90) (size 2.286 1.25) (layers "F.Cu" "F.Paste" "F.Mask") (roundrect_rratio 0.25) (tstamp 0d5c169f-cd7c-407f-ac39-91c1f23a31db))
)
